<?xml version="1.0" encoding="UTF-8" standalone="no"?>
<svg
   viewBox="0 0 10000 10000"
   version="1.1"
   fill="#eeeeee"
   stroke="#000000"
   stroke-width="50"
   id="svg25"
   sodipodi:docname="TTSIcon.svg"
   width="10000"
   height="10000"
   inkscape:version="1.1.1 (3bf5ae0d25, 2021-09-20)"
   inkscape:export-filename="/home/consonne/Téléchargements/TTSIcon.png"
   inkscape:export-xdpi="0.30720001"
   inkscape:export-ydpi="0.30720001"
   xmlns:inkscape="http://www.inkscape.org/namespaces/inkscape"
   xmlns:sodipodi="http://sodipodi.sourceforge.net/DTD/sodipodi-0.dtd"
   xmlns="http://www.w3.org/2000/svg"
   xmlns:svg="http://www.w3.org/2000/svg">
  <defs
     id="defs29" />
  <sodipodi:namedview
     id="namedview27"
     pagecolor="#ffffff"
     bordercolor="#666666"
     borderopacity="1.0"
     inkscape:pageshadow="2"
     inkscape:pageopacity="0.0"
     inkscape:pagecheckerboard="0"
     showgrid="false"
     height="10000px"
     inkscape:zoom="0.0525"
     inkscape:cx="2571.4286"
     inkscape:cy="6000"
     inkscape:window-width="1920"
     inkscape:window-height="1015"
     inkscape:window-x="0"
     inkscape:window-y="0"
     inkscape:window-maximized="1"
     inkscape:current-layer="g1088" />
  <g
     id="g23">
    <title
       id="title2">Speech and Thought Bubbles, by Adam Stanislav</title>
    <g
       id="g1088"
       transform="matrix(1.6186009,0,0,1.6186009,-4966.588,1095.115)">
      <path
         id="SignBubble"
         d="m 6454.82,1929.49 c 197.826,0 358.434,160.609 358.434,358.434 v 716.867 c 0,197.825 -160.609,358.434 -358.434,358.434 h -569.046 c 204.69,490.021 518.929,984.73 891.335,1481.93 -753.345,-498.735 -1377.1,-993.146 -1832.15,-1481.93 H 4376.51 c -197.825,0 -358.434,-160.609 -358.434,-358.434 v -716.867 c 0,-197.825 160.609,-358.434 358.434,-358.434 z"
         style="fill:#0000ff" />
      <path
         id="PocketKnifeBubble"
         d="m 8542.17,278.892 c 196.163,0 355.421,159.259 355.421,355.421 v 710.844 c 0,19.924 -1.643,39.468 -4.801,58.503 3.178,27.153 4.801,54.645 4.801,82.424 0,505.368 -1344.39,1975.9 -2006.02,1975.9 170.001,-182.989 904.744,-1234 1112.16,-1761.41 h -4268.78 c -196.163,0 -355.422,-159.259 -355.422,-355.421 V 634.309 c 0,-196.162 159.259,-355.421 355.422,-355.421 h 4807.23 z"
         style="fill:#ffff00" />
    </g>
  </g>
</svg>
